…
```
## # A tibble: 45 x 5
## # Groups:   V1, V2 [45]
##    V1      V2      p.dist score   pid
##    <fct>   <fct>    <dbl> <dbl> <dbl>
##  1 ASV814  ASV3193 0.0277  446.  97.2
##  2 ASV814  ASV4223 0.0395  423.  96.0
##  3 ASV814  ASV1802 0.0435  415.  95.7
##  4 ASV814  ASV3032 0.0277  446.  97.2
##  5 ASV814  ASV4089 0.0474  407.  95.3
##  6 ASV814  ASV3966 0.0356  430.  96.4
##  7 ASV814  ASV1398 0.0435  415.  95.7
##  8 ASV814  ASV315  0.0395  423.  96.0
##  9 ASV814  ASV3294 0.0356  430.  96.4
## 10 ASV3193 ASV4223 0.0316  438.  96.8
## #  with 35 more rows
```
